Data Processing in R
…
flights_by_month <- group_by(flights, month)
class(flights)

## [1] "tbl_df"     "tbl"        "data.frame"

class(flights_by_month)

## [1] "grouped_df" "tbl_df"     "tbl"        "data.frame"

Grouping

print(flights_by_month, width = 60)

## Source: local data frame [336,776 x 19]
## Groups: month [12]
## 
##     year month   day dep_time sched_dep_time dep_delay
##    <int> <int> <int>    <int>          <int>     <dbl>
## 1   2013     1     1      517            515         2
## 2   2013     1     1      533            529         4
## 3   2013     1     1      542            540         2
## 4   2013     1     1      544            545        -1
## 5   2013     1     1      554            600        -6
## 6   2013     1     1      554            558        -4
## 7   2013     1     1      555            600        -5
## 8   2013     1     1      557            600        -3
## 9   2013     1     1      557            600        -3
## 10  2013     1     1      558            600        -2
## # ... with 336,766 more rows, and 13 more variables:
## #   arr_time <int>, sched_arr_time <int>, arr_delay <dbl>,
## #   carrier <chr>, flight <int>, tailnum <chr>,
## #   origin <chr>, dest <chr>, air_time <dbl>,
## #   distance <dbl>, hour <dbl>, minute <dbl>,
## #   time_hour <time>
…
Summarising 
 Multiple Groups

You can nest groups by specifying multiple grouping columns in group_by.

flights_by_date <- group_by(flights, month, day)

Summarising 
 Multiple Groups

## Source: local data frame [336,776 x 19]
## Groups: month, day [365]
## 
##     year month   day dep_time sched_dep_time dep_delay arr_time
##    <int> <int> <int>    <int>          <int>     <dbl>    <int>
## 1   2013     1     1      517            515         2      830
## 2   2013     1     1      533            529         4      850
## 3   2013     1     1      542            540         2      923
## 4   2013     1     1      544            545        -1     1004
## 5   2013     1     1      554            600        -6      812
## 6   2013     1     1      554            558        -4      740
## 7   2013     1     1      555            600        -5      913
## 8   2013     1     1      557            600        -3      709
## 9   2013     1     1      557            600        -3      838
## 10  2013     1     1      558            600        -2      753
## # ... with 336,766 more rows, and 12 more variables: sched_arr_time <int>,
## #   arr_delay <dbl>, carrier <chr>, flight <int>, tailnum <chr>,
## #   origin <chr>, dest <chr>, air_time <dbl>, distance <dbl>, hour <dbl>,
## #   minute <dbl>, time_hour <time>

Summarising 
 Multiple Groups

summarise(flights_by_date, Delay_Avg = mean(arr_delay, na.rm = T),
          Distance_Avg = mean(distance),
          Distance_SD = sd(distance),
          Most_Common_Carrier = names(sort(table(carrier)))[1])

Summarising 
 Multiple Groups

## Source: local data frame [365 x 6]
## Groups: month [?]
## 
##    month   day  Delay_Avg Distance_Avg Distance_SD Most_Common_Carrier
##    <int> <int>      <dbl>        <dbl>       <dbl>               <chr>
## 1      1     1 12.6510229    1077.4299    727.7316                  HA
## 2      1     2 12.6928879    1053.1177    721.7240                  HA
## 3      1     3  5.7333333    1037.3709    714.9500                  HA
## 4      1     4 -1.9328194    1032.4754    715.6885                  HA
## 5      1     5 -1.5258020    1067.5917    741.4478                  HA
## 6      1     6  4.2364294    1051.6466    727.7778                  HA
## 7      1     7 -4.9473118     998.2572    718.7444                  HA
## 8      1     8 -3.2275785     985.5328    713.8640                  HA
## 9      1     9 -0.2642777     981.4202    707.3867                  HA
## 10     1    10 -5.8988159     993.1856    717.6512                  HA
## # ... with 355 more rows
…
Combining

flights_with_airlines <- left_join(flights, airlines, by = "carrier")
select(flights_with_airlines, carrier, name)

## # A tibble: 336,776 x 2
##    carrier                     name
##      <chr>                    <chr>
## 1       UA    United Air Lines Inc.
## 2       UA    United Air Lines Inc.
## 3       AA   American Airlines Inc.
## 4       B6          JetBlue Airways
## 5       DL     Delta Air Lines Inc.
## 6       UA    United Air Lines Inc.
## 7       B6          JetBlue Airways
## 8       EV ExpressJet Airlines Inc.
## 9       B6          JetBlue Airways
## 10      AA   American Airlines Inc.
## # ... with 336,766 more rows
…
Piping 
 Additional Examples

Let's say we wanted to pull out the average of the top 5 longest delayed flights for each carrier for each month.

flights_long_delay <- flights %>%
  group_by(carrier, month) %>%
  arrange(arr_delay) %>%
  top_n(5) %>%
  summarise(Avg_Delay = mean(arr_delay, na.rm = T))

Piping 
 Additional Examples

## Source: local data frame [185 x 3]
## Groups: carrier [?]
## 
##    carrier month  Avg_Delay
##      <chr> <int>      <dbl>
## 1       9E     1  77.600000
## 2       9E     2  -2.000000
## 3       9E     3  -7.000000
## 4       9E     4 -14.666667
## 5       9E     5  -0.900000
## 6       9E     6        NaN
## 7       9E     7  -5.333333
## 8       9E     8 -13.571429
## 9       9E     9 -24.750000
## 10      9E    10   1.600000
## # ... with 175 more rows
…
